[
  {
    "type": "spritesheet",
    "name": "beanSprites",
    "url": "assets/bean-sprites.png",
    "spriteX": 64,
    "spriteY": 64
  }, {
    "type": "image",
    "name": "arenaBackground",
    "url": "assets/arena640x448.png",
    "width": 640,
    "height": 448
  }, {
    "type": "image",
    "name": "arenaForeground",
    "url": "assets/arena640x448-foreground.png",
    "width": 640,
    "height": 448
  }, {
    "type": "audio",
    "name": "move",
    "url": "assets/move.ogg"
  }, {
    "type": "audio",
    "name": "rotate",
    "url": "assets/rotate.ogg"
  }, {
    "type": "audio",
    "name": "land",
    "url": "assets/land.ogg"
  }, {
    "type": "audio",
    "name": "chain0",
    "url": "assets/chain0.ogg"
  }, {
    "type": "audio",
    "name": "chain1",
    "url": "assets/chain1.ogg"
  }, {
    "type": "audio",
    "name": "chain2",
    "url": "assets/chain2.ogg"
  }, {
    "type": "audio",
    "name": "chain3",
    "url": "assets/chain3.ogg"
  }, {
    "type": "audio",
    "name": "chain4",
    "url": "assets/chain4.ogg"
  }, {
    "type": "audio",
    "name": "chain5",
    "url": "assets/chain5.ogg"
  }, {
    "type": "audio",
    "name": "chain6",
    "url": "assets/chain6.ogg"
  }, {
    "type": "audio",
    "name": "yepee1",
    "url": "assets/yepee1.ogg"
  }, {
    "type": "audio",
    "name": "yepee2",
    "url": "assets/yepee2.ogg"
  }, {
    "type": "audio",
    "name": "yepee3",
    "url": "assets/yepee3.ogg"
  }, {
    "type": "audio",
    "name": "yepee4",
    "url": "assets/yepee4.ogg"
  }, {
    "type": "audio",
    "name": "yehaa1",
    "url": "assets/yehaa1.ogg"
  }, {
    "type": "audio",
    "name": "yehaa2",
    "url": "assets/yehaa2.ogg"
  }, {
    "type": "audio",
    "name": "yehaa3",
    "url": "assets/yehaa3.ogg"
  }, {
    "type": "audio",
    "name": "yehaa4",
    "url": "assets/yehaa4.ogg"
  }, {
    "type": "audio",
    "name": "stack1",
    "url": "assets/stack1.ogg"
  }, {
    "type": "audio",
    "name": "stack2",
    "url": "assets/stack2.ogg"
  }, {
    "type": "audio",
    "name": "stack3",
    "url": "assets/stack3.ogg"
  }, {
    "type": "audio",
    "name": "stack4",
    "url": "assets/stack4.ogg"
  }
]
